Day 6 Activity
…
mutate()

size_conv <- lobster %>%
  mutate(size_cm = size_mm / 10)

lobster %>%
  mutate(site = tolower(site))

# A tibble: 9,387 × 9
    year month date       site  transect replicate size_mm num_ao  area
   <dbl> <dbl> <date>     <chr>    <dbl> <chr>       <dbl>  <dbl> <dbl>
 1  2012     8 2012-08-20 ivee         3 A              70      0   300
 2  2012     8 2012-08-20 ivee         3 B              60      0   300
 3  2012     8 2012-08-20 ivee         3 B              65      0   300
 4  2012     8 2012-08-20 ivee         3 B              70      0   300
 5  2012     8 2012-08-20 ivee         3 B              85      0   300
 6  2012     8 2012-08-20 ivee         3 C              60      0   300
 7  2012     8 2012-08-20 ivee         3 C              65      0   300
 8  2012     8 2012-08-20 ivee         3 C              67      0   300
 9  2012     8 2012-08-20 ivee         3 D              70      0   300
10  2012     8 2012-08-20 ivee         4 B              85      0   300
# ℹ 9,377 more rows

lobster %>%
  mutate(area = as.character(area))

# A tibble: 9,387 × 9
    year month date       site  transect replicate size_mm num_ao area 
   <dbl> <dbl> <date>     <chr>    <dbl> <chr>       <dbl>  <dbl> <chr>
 1  2012     8 2012-08-20 IVEE         3 A              70      0 300  
 2  2012     8 2012-08-20 IVEE         3 B              60      0 300  
 3  2012     8 2012-08-20 IVEE         3 B              65      0 300  
 4  2012     8 2012-08-20 IVEE         3 B              70      0 300  
 5  2012     8 2012-08-20 IVEE         3 B              85      0 300  
 6  2012     8 2012-08-20 IVEE         3 C              60      0 300  
 7  2012     8 2012-08-20 IVEE         3 C              65      0 300  
 8  2012     8 2012-08-20 IVEE         3 C              67      0 300  
 9  2012     8 2012-08-20 IVEE         3 D              70      0 300  
10  2012     8 2012-08-20 IVEE         4 B              85      0 300  
# ℹ 9,377 more rows

case_when()

size_bin <- lobster %>%
  mutate(size_bin = case_when(size_mm <= 70 ~ "small",
                              size_mm > 70 ~ "large"))
size_bin

# A tibble: 9,387 × 10
    year month date       site  transect replicate size_mm num_ao  area size_bin
   <dbl> <dbl> <date>     <chr>    <dbl> <chr>       <dbl>  <dbl> <dbl> <chr>   
 1  2012     8 2012-08-20 IVEE         3 A              70      0   300 small   
 2  2012     8 2012-08-20 IVEE         3 B              60      0   300 small   
 3  2012     8 2012-08-20 IVEE         3 B              65      0   300 small   
 4  2012     8 2012-08-20 IVEE         3 B              70      0   300 small   
 5  2012     8 2012-08-20 IVEE         3 B              85      0   300 large   
 6  2012     8 2012-08-20 IVEE         3 C              60      0   300 small   
 7  2012     8 2012-08-20 IVEE         3 C              65      0   300 small   
 8  2012     8 2012-08-20 IVEE         3 C              67      0   300 small   
 9  2012     8 2012-08-20 IVEE         3 D              70      0   300 small   
10  2012     8 2012-08-20 IVEE         4 B              85      0   300 large   
# ℹ 9,377 more rows

lobster %>%
  mutate(designation = case_when(site == "IVEE" | site == "NAPL" ~ "MPA",
                                 TRUE ~ "not MPA"))

# A tibble: 9,387 × 10
    year month date       site  transect replicate size_mm num_ao  area
   <dbl> <dbl> <date>     <chr>    <dbl> <chr>       <dbl>  <dbl> <dbl>
 1  2012     8 2012-08-20 IVEE         3 A              70      0   300
 2  2012     8 2012-08-20 IVEE         3 B              60      0   300
 3  2012     8 2012-08-20 IVEE         3 B              65      0   300
 4  2012     8 2012-08-20 IVEE         3 B              70      0   300
 5  2012     8 2012-08-20 IVEE         3 B              85      0   300
 6  2012     8 2012-08-20 IVEE         3 C              60      0   300
 7  2012     8 2012-08-20 IVEE         3 C              65      0   300
 8  2012     8 2012-08-20 IVEE         3 C              67      0   300
 9  2012     8 2012-08-20 IVEE         3 D              70      0   300
10  2012     8 2012-08-20 IVEE         4 B              85      0   300
# ℹ 9,377 more rows
# ℹ 1 more variable: designation <chr>
